G28
M140 S40
G1 X100 Y100 Z70 F1500
G1 X0 F500
G1 F1900
G1 Y90
G1 Y110
G1 Y90
G1 Y110
G1 Y90
G1 Y110
G1 Y90
G1 Y110
G1 Y90
G1 Y110
G1 Y90
G1 Y110
G1 Y90
G1 Y110
G1 Y90
G1 Y110
G1 Y90
G1 Y110
G1 Y90
G1 Y110
G1 Y90
G1 Y110
G1 Y90
G1 Y110
G1 Y90
G1 Y110
G1 Y90
G1 Y110
G1 Y90
G1 Y110
G1 Y90
G1 Y110
G1 Y90
G1 Y110
G1 Y90
G1 Y110
G1 Y90
G1 Y110
G1 Y90
G1 Y110
G1 Y90
G1 Y110
G1 Y90
G1 Y110
G1 Y90
G1 Y110
G1 Y90
G1 Y110
G1 Y90
G1 Y110
G1 Y90
G1 Y110
G1 Y90
G1 Y110
G1 Y90
G1 Y110
G1 Y90
G1 Y110
G1 Y90
G1 Y110
G1 Y90
G1 Y110
G1 Y90
G1 Y110
G1 Y90
G1 Y110
G1 Y90
G1 Y110
G1 Y90
G1 Y110
G1 Y90
G1 Y110
G1 Y90
G1 Y110
G1 Y90
G1 Y110
G1 Y90
G1 Y110
G1 Y90
G1 Y110
G1 Y90
G1 Y110
G1 Y90
G1 Y110
G1 Y90
G1 Y110
G1 Y90
G1 Y110
G1 Y90
G1 Y110
G1 Y90
G1 Y110
G1 Y90
G1 Y110
G1 Y90
G1 Y110
G1 Y90
G1 Y110
G1 Y90
G1 Y110
G1 Y90
G1 Y110
G1 Y90
G1 Y110
G1 Y90
G1 Y110
G1 Y90
G1 Y110
G1 Y90
G1 Y110
G1 Y90
G1 Y110
G1 Y90
G1 Y110
G1 Y90
G1 Y110
G1 Y90
G1 Y110
G1 Y90
G1 Y110
G1 Y90
G1 Y110
G1 Y90
G1 Y110
G1 Y90
G1 Y110
G1 Y90
G1 Y110
G1 Y90
G1 Y110
G1 Y90
G1 Y110
G1 Y90
G1 Y110
G1 Y90
G1 Y110
G1 Y90
G1 Y110
G1 Y90
G1 Y110
G1 Y90
G1 Y110
G1 Y90
G1 Y110
G1 Y90
G1 Y110
G1 Y90
G1 Y110
G1 Y90
G1 Y110
G1 Y90
G1 Y110
G1 Y90
G1 Y110
G1 Y90
G1 Y110
G1 Y90
G1 Y110
G1 Y90
G1 Y110
G1 Y90
G1 Y110
G1 Y90
G1 Y110
G1 Y90
G1 Y110
G1 Y90
G1 Y110
G1 Y90
G1 Y110
G1 Y90
G1 Y110
G1 Y90
G1 Y110
G1 Y90
G1 Y110
G1 Y90
G1 Y110
G1 Y90
G1 Y110
G1 Y90
G1 Y110
G1 Y90
G1 Y110
G1 Y90
G1 Y110
G1 Y90
G1 Y110
G1 Y90
G1 Y110
G1 Y90
G1 Y110
G1 Y90
G1 Y110
G1 Y90
G1 Y110
G1 Y90
G1 Y110
G1 Y90
G1 Y110
G1 Y90
G1 Y110
G1 Y90
G1 Y110
G1 Y90
G1 Y110
G1 Y90
G1 Y110
G1 Y90
G1 Y110
G1 Y90
G1 Y110
G1 Y90
G1 Y110
G1 Y90
G1 Y110
G1 Y90
G1 Y110
G1 Y90
G1 Y110
G1 Y90
G1 Y110
G1 Y90
G1 Y110
G1 Y90
G1 Y110
G1 Y90
G1 Y110
G1 Y90
G1 Y110
G1 Y90
G1 Y110
G1 Y90
G1 Y110
G1 Y90
G1 Y110
G1 Y90
G1 Y110
G1 Y90
G1 Y110
G1 Y90
G1 Y110
G1 Y90
G1 Y110
G1 Y90
G1 Y110
G1 Y90
G1 Y110
G1 Y90
G1 Y110
G1 Y90
G1 Y110
G1 Y90
G1 Y110
G1 Y90
G1 Y110
G1 Y90
G1 Y110
G1 Y90
G1 Y110
G1 Y90
G1 Y110
G1 Y90
G1 Y110
G1 Y90
G1 Y110
G1 Y90
G1 Y110
G1 Y90
G1 Y110
G1 Y90
G1 Y110
G1 Y90
G1 Y110
G1 Y90
G1 Y110
G1 Y90
G1 Y110
G1 Y90
G1 Y110
G1 Y90
G1 Y110
G1 Y90
G1 Y110
G1 Y90
G1 Y110
G1 Y90
G1 Y110
G1 Y90
G1 Y110
G1 Y90
G1 Y110
G1 Y90
G1 Y110
G1 Y90
G1 Y110
G1 Y90
G1 Y110
G1 Y90
G1 Y110
G1 Y90
G1 Y110
G1 Y90
G1 Y110
G1 Y90
G1 Y110
G1 Y90
G1 Y110
G1 Y90
G1 Y110
G1 Y90
G1 Y110
G1 Y90
G1 Y110
G1 Y90
G1 Y110
G1 Y90
G1 Y110
G1 Y90
G1 Y110
G1 Y90
G1 Y110
G1 Y90
G1 Y110
G1 Y90
G1 Y110
G1 Y90
G1 Y110
G1 Y90
G1 Y110
G1 Y90
G1 Y110
G1 Y90
G1 Y110
G1 Y90
G1 Y110
G1 Y90
G1 Y110
G1 Y90
G1 Y110
G1 Y90
G1 Y110
G1 Y90
G1 Y110
G1 Y90
G1 Y110
G1 Y90
G1 Y110
G1 Y90
G1 Y110
G1 Y90
G1 Y110
G1 Y90
G1 Y110
G1 Y90
G1 Y110
G1 Y90
G1 Y110
G1 Y90
G1 Y110
G1 Y90
G1 Y110
G1 Y90
G1 Y110
G1 Y90
G1 Y110
G1 Y90
G1 Y110
G1 Y90
G1 Y110
G1 Y90
G1 Y110
G1 Y90
G1 Y110
G1 Y90
G1 Y110
G1 Y90
G1 Y110
G1 Y90
G1 Y110
G1 Y90
G1 Y110
G1 Y90
G1 Y110
G1 Y90
G1 Y110
G1 Y90
G1 Y110
G1 Y90
G1 Y110
G1 Y90
G1 Y110
G1 Y90
G1 Y110
G1 Y90
G1 Y110
G1 Y90
G1 Y110
G1 Y90
G1 Y110
G1 Y90
G1 Y110
G1 Y90
G1 Y110
G1 Y90
G1 Y110
G1 Y90
G1 Y110
G1 Y90
G1 Y110
G1 Y90
G1 Y110
G1 Y90
G1 Y110
G1 Y90
G1 Y110
G1 Y90
G1 Y110
G1 Y90
G1 Y110
G1 Y90
G1 Y110
G1 Y90
G1 Y110
G1 Y90
G1 Y110
G1 Y90
G1 Y110
G1 Y90
G1 Y110
G1 Y90
G1 Y110
G1 Y90
G1 Y110
G1 Y90
G1 Y110
G1 Y90
G1 Y110
G1 Y90
G1 Y110
G1 Y90
G1 Y110
G1 Y90
G1 Y110
G1 Y90
G1 Y110
G1 Y90
G1 Y110
G1 Y90
G1 Y110
G1 Y90
G1 Y110
G1 Y90
G1 Y110
G1 Y90
G1 Y110
G1 Y90
G1 Y110
G1 Y90
G1 Y110
G1 Y90
G1 Y110
G1 Y90
G1 Y110
G1 Y90
G1 Y110
G1 Y90
G1 Y110
G1 Y90
G1 Y110
G1 Y90
G1 Y110
G1 Y90
G1 Y110
G1 Y90
G1 Y110
G1 Y90
G1 Y110
G1 Y90
G1 Y110
G1 Y90
G1 Y110
G1 Y90
G1 Y110
G1 Y90
G1 Y110
G1 Y90
G1 Y110
G1 Y90
G1 Y110
G1 Y90
G1 Y110
G1 Y90
G1 Y110
G1 Y90
G1 Y110
G1 Y90
G1 Y110
G1 Y90
G1 Y110
G1 Y90
G1 Y110
G1 Y90
G1 Y110
G1 Y90
G1 Y110
G1 Y90
G1 Y110
G1 Y90
G1 Y110
G1 Y90
G1 Y110
G1 Y90
G1 Y110
G1 Y90
G1 Y110
G1 Y90
G1 Y110
G1 Y90
G1 Y110
G1 Y90
G1 Y110
G1 Y90
G1 Y110
G1 Y90
G1 Y110
G1 Y90
G1 Y110
G1 Y90
G1 Y110
G1 Y90
G1 Y110
G1 Y90
G1 Y110
G1 Y90
G1 Y110
G1 Y90
G1 Y110
G1 Y90
G1 Y110
G1 Y90
G1 Y110
G1 Y90
G1 Y110
G1 Y90
G1 Y110
G1 Y90
G1 Y110
G1 Y90
G1 Y110
G1 Y90
G1 Y110
G1 Y90
G1 Y110
G1 Y90
G1 Y110
G1 Y90
G1 Y110
G1 Y90
G1 Y110
G1 Y90
G1 Y110
G1 Y90
G1 Y110
G1 Y90
G1 Y110
G1 Y90
G1 Y110
G1 Y90
G1 Y110
G1 Y90
G1 Y110
G1 Y90
G1 Y110
G1 Y90
G1 Y110
G1 Y90
G1 Y110
G1 Y90
G1 Y110
G1 Y90
G1 Y110
G1 Y90
G1 Y110
G1 Y90
G1 Y110
G1 Y90
G1 Y110
G1 Y90
G1 Y110
G1 Y90
G1 Y110
G1 Y90
G1 Y110
G1 Y90
G1 Y110
G1 Y90
G1 Y110
G1 Y90
G1 Y110
G1 Y90
G1 Y110
G1 Y90
G1 Y110
G1 Y90
G1 Y110
G1 Y90
G1 Y110
G1 Y90
G1 Y110
G1 Y90
G1 Y110
G1 Y90
G1 Y110
G1 Y90
G1 Y110
G1 Y90
G1 Y110
G1 Y90
G1 Y110
G1 Y90
G1 Y110
G1 Y90
G1 Y110
G1 Y90
G1 Y110
G1 Y90
G1 Y110
G1 Y90
G1 Y110
G1 Y90
G1 Y110
G1 Y90
G1 Y110
G1 Y90
G1 Y110
G1 Y90
G1 Y110
G1 Y90
G1 Y110
G1 Y90
G1 Y110
G1 Y90
G1 Y110
G1 Y90
G1 Y110
G1 Y90
G1 Y110
G1 Y90
G1 Y110
G1 Y90
G1 Y110
G1 Y90
G1 Y110
G1 Y90
G1 Y110
G1 Y90
G1 Y110
G1 Y90
G1 Y110
G1 Y90
G1 Y110
G1 Y90
G1 Y110
G1 Y90
G1 Y110
G1 Y90
G1 Y110
G1 Y90
G1 Y110
G1 Y90
G1 Y110
G1 Y90
G1 Y110
G1 Y90
G1 Y110
G1 Y90
G1 Y110
G1 Y90
G1 Y110
G1 Y90
G1 Y110
G1 Y90
G1 Y110
G1 Y90
G1 Y110
G1 Y90
G1 Y110
G1 Y90
G1 Y110
G1 Y90
G1 Y110
G1 Y90
G1 Y110
G1 Y90
G1 Y110
G1 Y90
G1 Y110
G1 Y90
G1 Y110
G1 Y90
G1 Y110
G1 Y90
G1 Y110
G1 Y90
G1 Y110
G1 Y90
G1 Y110
G1 Y90
G1 Y110
G1 Y90
G1 Y110
G1 Y90
G1 Y110
G1 Y90
G1 Y110
G1 Y90
G1 Y110
G1 Y90
G1 Y110
G1 Y90
G1 Y110
G1 Y90
G1 Y110
G1 Y90
G1 Y110
G1 Y90
G1 Y110
G1 Y90
G1 Y110
G1 Y90
G1 Y110
G1 Y90
G1 Y110
G1 Y90
G1 Y110
G1 Y90
G1 Y110
G1 Y90
G1 Y110
G1 Y90
G1 Y110
G1 Y90
G1 Y110
G1 Y90
G1 Y110
G1 Y90
G1 Y110
G1 Y90
G1 Y110
G1 Y90
G1 Y110
G1 Y90
G1 Y110
G1 Y90
G1 Y110
G1 Y90
G1 Y110
G1 Y90
G1 Y110
G1 Y90
G1 Y110
G1 Y90
G1 Y110
G1 Y90
G1 Y110
G1 Y90
G1 Y110
G1 Y90
G1 Y110
G1 Y90
G1 Y110
G1 Y90
G1 Y110
G1 Y90
G1 Y110
G1 Y90
G1 Y110
G1 Y90
G1 Y110
G1 Y90
G1 Y110
G1 Y90
G1 Y110
G1 Y90
G1 Y110
G1 Y90
G1 Y110
G1 Y90
G1 Y110
G1 Y90
G1 Y110
G1 Y90
G1 Y110
G1 Y90
G1 Y110
G1 Y90
G1 Y110
G1 Y90
G1 Y110
G1 Y90
G1 Y110
G1 Y90
G1 Y110
G1 Y90
G1 Y110
G1 Y90
G1 Y110
G1 Y90
G1 Y110
G1 Y90
G1 Y110
G1 Y90
G1 Y110
G1 Y90
G1 Y110
G1 Y90
G1 Y110
G1 Y90
G1 Y110
G1 Y90
G1 Y110
G1 Y90
G1 Y110
G1 Y90
G1 Y110
G1 Y90
G1 Y110
G1 Y90
G1 Y110
G1 Y90
G1 Y110
G1 Y90
G1 Y110
G1 Y90
G1 Y110
G1 Y90
G1 Y110
G1 Y90
G1 Y110
G1 Y90
G1 Y110
G1 Y90
G1 Y110
G1 Y90
G1 Y110
G1 Y90
G1 Y110
G1 Y90
G1 Y110
G1 Y90
G1 Y110
G1 Y90
G1 Y110
G1 Y90
G1 Y110
G1 Y90
G1 Y110
G1 Y90
G1 Y110
G1 Y90
G1 Y110
G1 Y90
G1 Y110
G1 Y90
G1 Y110
G1 Y90
G1 Y110
G1 Y90
G1 Y110
G1 Y90
G1 Y110
G1 Y90
G1 Y110
G1 Y90
G1 Y110
G1 Y90
G1 Y110
G1 Y90
G1 Y110
G1 Y90
G1 Y110
G1 Y90
G1 Y110
G1 Y90
G1 Y110
G1 Y90
G1 Y110
G1 Y90
G1 Y110
G1 Y90
G1 Y110
G1 Y90
G1 Y110
G1 Y90
G1 Y110
G1 Y90
G1 Y110
G1 Y90
G1 Y110
G1 Y90
G1 Y110
G1 Y90
G1 Y110
G1 Y90
G1 Y110
G1 Y90
G1 Y110
G1 Y90
G1 Y110
G1 Y90
G1 Y110
G1 Y90
G1 Y110
G1 Y90
G1 Y110
G1 Y90
G1 Y110
G1 Y90
G1 Y110
G1 Y90
G1 Y110
G1 Y90
G1 Y110
G1 Y90
G1 Y110
G1 Y90
G1 Y110
G1 Y90
G1 Y110
G1 Y90
G1 Y110
G1 Y90
G1 Y110
G1 Y90
G1 Y110
G1 Y90
G1 Y110
G1 Y90
G1 Y110
G1 Y90
G1 Y110
G1 Y90
G1 Y110
G1 Y90
G1 Y110
G1 Y90
G1 Y110
G1 Y90
G1 Y110
G1 Y90
G1 Y110
G1 Y90
G1 Y110
G1 Y90
G1 Y110
G1 Y90
G1 Y110
G1 Y90
G1 Y110
G1 Y90
G1 Y110
G1 Y90
G1 Y110
G1 Y90
G1 Y110
G1 Y90
G1 Y110
G1 Y90
G1 Y110
G1 Y90
G1 Y110
G1 Y90
G1 Y110
G1 Y90
G1 Y110
G1 Y90
G1 Y110
G1 Y90
G1 Y110
G1 Y90
G1 Y110
G1 Y90
G1 Y110
G1 Y90
G1 Y110
G1 Y90
G1 Y110
G1 Y90
G1 Y110
G1 Y90
G1 Y110
G1 Y90
G1 Y110
G1 Y90
G1 Y110
G1 Y90
G1 Y110
G1 Y90
G1 Y110
G1 Y90
G1 Y110
G1 Y90
G1 Y110
G1 Y90
G1 Y110
G1 Y90
G1 Y110
G1 Y90
G1 Y110
G1 Y90
G1 Y110
G1 Y90
G1 Y110
G1 Y90
G1 Y110
G1 Y90
G1 Y110
G1 Y90
G1 Y110
G1 Y90
G1 Y110
G1 Y90
G1 Y110
G1 Y90
G1 Y110
G1 Y90
G1 Y110
G1 Y90
G1 Y110
G1 Y90
G1 Y110
G1 Y90
G1 Y110
G1 Y90
G1 Y110
G1 Y90
G1 Y110
G1 Y90
G1 Y110
G1 Y90
G1 Y110
G1 Y90
G1 Y110
G1 Y90
G1 Y110
G1 Y90
G1 Y110
G1 Y90
G1 Y110
G1 Y90
G1 Y110
G1 Y90
G1 Y110
G1 Y90
G1 Y110
G1 Y90
G1 Y110
G1 Y90
G1 Y110
G1 Y90
G1 Y110
G1 Y90
G1 Y110
G1 Y90
G1 Y110
G1 Y90
G1 Y110
G1 Y90
G1 Y110
G1 Y90
G1 Y110
G1 Y90
G1 Y110
G1 Y90
G1 Y110
G1 Y90
G1 Y110
G1 Y90
G1 Y110
G1 Y90
G1 Y110
G1 Y90
G1 Y110
G1 Y90
G1 Y110
G1 Y90
G1 Y110
G1 Y90
G1 Y110
G1 Y90
G1 Y110
G1 Y90
G1 Y110
G1 Y90
G1 Y110
G1 Y90
G1 Y110
G1 Y90
G1 Y110
G1 Y90
G1 Y110
G1 Y90
G1 Y110
G1 Y90
G1 Y110
G1 Y90
G1 Y110
G1 Y90
G1 Y110
G1 Y90
G1 Y110
G1 Y90
G1 Y110
G1 Y90
G1 Y110
G1 Y90
G1 Y110
G1 Y90
G1 Y110
G1 Y90
G1 Y110
G1 Y90
G1 Y110
G1 Y90
G1 Y110
G1 Y90
G1 Y110
G1 Y90
G1 Y110
G1 Y90
G1 Y110
G1 Y90
G1 Y110
G1 Y90
G1 Y110
G1 Y90
G1 Y110
G1 Y90
G1 Y110
G1 Y90
G1 Y110
G1 Y90
G1 Y110
G1 Y90
G1 Y110
G1 Y90
G1 Y110
G1 Y90
G1 Y110
G1 Y90
G1 Y110
G1 Y90
G1 Y110
G1 Y90
G1 Y110
G1 Y90
G1 Y110
G1 Y90
G1 Y110
G1 Y90
G1 Y110
G1 Y90
G1 Y110
G1 Y90
G1 Y110
G1 Y90
G1 Y110
G1 Y90
G1 Y110
G1 Y90
G1 Y110
G1 Y90
G1 Y110
G1 Y90
G1 Y110
G1 Y90
G1 Y110
G1 Y90
G1 Y110
G1 Y90
G1 Y110
G1 Y90
G1 Y110
G1 Y90
G1 Y110
G1 Y90
G1 Y110
G1 Y90
G1 Y110
G1 Y90
G1 Y110
G1 Y90
G1 Y110
G1 Y90
G1 Y110
G1 Y90
G1 Y110
G1 Y90
G1 Y110
G1 Y90
G1 Y110
G1 Y90
G1 Y110
G1 Y90
G1 Y110
G1 Y90
G1 Y110
G1 Y90
G1 Y110
G1 Y90
G1 Y110
G1 Y90
G1 Y110
G1 Y90
G1 Y110
G1 Y90
G1 Y110
G1 Y90
G1 Y110
G1 Y90
G1 Y110
G1 Y90
G1 Y110
G1 Y90
G1 Y110
G1 Y90
G1 Y110
G1 Y90
G1 Y110
G1 Y90
G1 Y110
G1 Y90
G1 Y110
G1 Y90
G1 Y110
G1 Y90
G1 Y110
G1 Y90
G1 Y110
G1 Y90
G1 Y110
G1 Y90
G1 Y110
G1 Y90
G1 Y110
G1 Y90
G1 Y110
G1 Y90
G1 Y110
G1 Y90
G1 Y110
G1 Y90
G1 Y110
G1 Y90
G1 Y110
G1 Y90
G1 Y110
G1 Y90
G1 Y110
G1 Y90
G1 Y110
G1 Y90
G1 Y110
G1 Y90
G1 Y110
G1 Y90
G1 Y110
G1 Y90
G1 Y110
G1 Y90
G1 Y110
G1 Y90
G1 Y110
G1 Y90
G1 Y110
G1 Y90
G1 Y110
G1 Y90
G1 Y110
G1 Y90
G1 Y110
G1 Y90
G1 Y110
G1 Y90
G1 Y110
G1 Y90
G1 Y110
G1 Y90
G1 Y110
G1 Y90
G1 Y110
G1 Y90
G1 Y110
G1 Y90
G1 Y110
G1 Y90
G1 Y110
G1 Y90
G1 Y110
G1 Y90
G1 Y110
G1 Y90
G1 Y110
G1 Y90
G1 Y110
G1 Y90
G1 Y110
G1 Y90
G1 Y110
G1 Y90
G1 Y110
G1 Y90
G1 Y110
G1 Y90
G1 Y110
G1 Y90
G1 Y110
G1 Y90
G1 Y110
G1 Y90
G1 Y110
G1 Y90
G1 Y110
G1 Y90
G1 Y110
G1 Y90
G1 Y110
G1 Y90
G1 Y110
G1 Y90
G1 Y110
G1 Y90
G1 Y110
G1 Y90
G1 Y110
G1 Y90
G1 Y110
G1 Y90
G1 Y110
G1 Y90
G1 Y110
G1 Y90
G1 Y110
G1 Y90
G1 Y110
G1 Y90
G1 Y110
G1 Y90
G1 Y110
G1 Y90
G1 Y110
G1 Y90
G1 Y110
G1 Y90
G1 Y110
G1 Y90
G1 Y110
G1 Y90
G1 Y110
G1 Y90
G1 Y110
G1 Y90
G1 Y110
G1 Y90
G1 Y110
G1 Y90
G1 Y110
G1 Y90
G1 Y110
G1 Y90
G1 Y110
G1 Y90
G1 Y110
G1 Y90
G1 Y110
G1 Y90
G1 Y110
G1 Y90
G1 Y110
G1 Y90
G1 Y110
G1 Y90
G1 Y110
G1 Y90
G1 Y110
G1 Y90
G1 Y110
G1 Y90
G1 Y110
G1 Y90
G1 Y110
G1 Y90
G1 Y110
G1 Y90
G1 Y110
G1 Y90
G1 Y110
G1 Y90
G1 Y110
G1 Y90
G1 Y110
G1 Y90
G1 Y110
G1 Y90
G1 Y110
G1 Y90
G1 Y110
G1 Y90
G1 Y110
G1 Y90
G1 Y110
G1 Y90
G1 Y110
G1 Y90
G1 Y110
G1 Y90
G1 Y110
G1 Y90
G1 Y110
G1 Y90
G1 Y110
G1 Y90
G1 Y110
G1 Y90
G1 Y110
G1 Y90
G1 Y110
G1 Y90
G1 Y110
G1 Y90
G1 Y110
G1 Y90
G1 Y110
G1 Y90
G1 Y110
G1 Y90
G1 Y110
G1 Y90
G1 Y110
G1 Y90
G1 Y110
G1 Y90
G1 Y110
G1 Y90
G1 Y110
G1 Y90
G1 Y110
G1 Y90
G1 Y110
G1 Y90
G1 Y110
G1 Y90
G1 Y110
G1 Y90
G1 Y110
G1 Y90
G1 Y110
G1 Y90
G1 Y110
G1 Y90
G1 Y110
G1 Y90
G1 Y110
G1 Y90
G1 Y110
G1 Y90
G1 Y110
G1 Y90
G1 Y110
G1 Y90
G1 Y110
G1 Y90
G1 Y110
G1 Y90
G1 Y110
G1 Y90
G1 Y110
G1 Y90
G1 Y110
G1 Y90
G1 Y110
G1 Y90
G1 Y110
G1 Y90
G1 Y110
G1 Y90
G1 Y110
G1 Y90
G1 Y110
G1 Y90
G1 Y110
G1 Y90
G1 Y110
G1 Y90
G1 Y110
G1 Y90
G1 Y110
G1 Y90
G1 Y110
G1 Y90
G1 Y110
G1 Y90
G1 Y110
G1 Y90
G1 Y110
G1 Y90
G1 Y110
G1 Y90
G1 Y110
G1 Y90
G1 Y110
G1 Y90
G1 Y110
G1 Y90
G1 Y110
G1 Y90
G1 Y110
G1 Y90
G1 Y110
G1 Y90
G1 Y110
G1 Y90
G1 Y110
G1 Y90
G1 Y110
G1 Y90
G1 Y110
G1 Y90
G1 Y110
G1 Y90
G1 Y110
G1 Y90
G1 Y110
G1 Y90
G1 Y110
G1 Y90
G1 Y110
G1 Y90
G1 Y110
G1 Y90
G1 Y110
G1 Y90
G1 Y110
G1 Y90
G1 Y110
G1 Y90
G1 Y110
G1 Y90
G1 Y110
G1 Y90
G1 Y110
G1 Y90
G1 Y110
G1 Y90
G1 Y110
G1 Y90
G1 Y110
G1 Y90
G1 Y110
G1 Y90
G1 Y110
G1 Y90
G1 Y110
G1 Y90
G1 Y110
G1 Y90
G1 Y110
G1 Y90
G1 Y110
G1 Y90
G1 Y110
G1 Y90
G1 Y110
G1 Y90
G1 Y110
G1 Y90
G1 Y110
G1 Y90
G1 Y110
G1 Y90
G1 Y110
G1 Y90
G1 Y110
G1 Y90
G1 Y110
G1 Y90
G1 Y110
G1 Y90
G1 Y110
G1 Y90
G1 Y110
G1 Y90
G1 Y110
G1 Y90
G1 Y110
G1 Y90
G1 Y110
G1 Y90
G1 Y110
G1 Y90
G1 Y110
G1 Y90
G1 Y110
G1 Y90
G1 Y110
G1 Y90
G1 Y110
G1 Y90
G1 Y110
G1 Y90
G1 Y110
G1 Y90
G1 Y110
G1 Y90
G1 Y110
G1 Y90
G1 Y110
G1 Y90
G1 Y110
G1 Y90
G1 Y110
G1 Y90
G1 Y110
G1 Y90
G1 Y110
G1 Y90
G1 Y110
G1 Y90
G1 Y110
G1 Y90
G1 Y110
G1 Y90
G1 Y110
G1 Y90
G1 Y110
G1 Y90
G1 Y110
G1 Y90
G1 Y110
G1 Y90
G1 Y110
G1 Y90
G1 Y110
G1 Y90
G1 Y110
G1 Y90
G1 Y110
G1 Y90
G1 Y110
G1 Y90
G1 Y110
G1 Y90
G1 Y110
G1 Y90
G1 Y110
G1 Y90
G1 Y110
G1 Y90
G1 Y110
G1 Y90
G1 Y110
G1 Y90
G1 Y110
G1 Y90
G1 Y110
G1 Y90
G1 Y110
G1 Y90
G1 Y110
G1 Y90
G1 Y110
G1 Y90
G1 Y110
G1 Y90
G1 Y110
